C:\dev\workspaces\framework\src\br\com\waiso\framework\exceptions\ErroNegocio.java
C:\dev\workspaces\framework\src\br\com\waiso\framework\view\servlets\MonitorServlet.java
C:\dev\workspaces\framework\src\br\com\waiso\framework\view\IRegexValidation.java
C:\dev\workspaces\framework\src\br\com\waiso\framework\json\JSONReturn.java
C:\dev\workspaces\framework\src\br\com\waiso\framework\view\servlets\FileTransferServlet.java
C:\dev\workspaces\framework\src\br\com\waiso\framework\utilitario\IConverter.java
C:\dev\workspaces\framework\src\br\com\waiso\framework\view\IComponentView.java
C:\dev\workspaces\framework\src\br\com\waiso\framework\utilitario\BigDecimalUtils.java
C:\dev\workspaces\framework\src\br\com\waiso\framework\utilitario\UUIDUtils.java
C:\dev\workspaces\framework\src\br\com\waiso\framework\zip\ZipContent.java
C:\dev\workspaces\framework\src\br\com\waiso\framework\ftp\ImportadorDado.java
C:\dev\workspaces\framework\src\br\com\waiso\framework\io\UnicodeBOMInputStream.java
C:\dev\workspaces\framework\src\br\com\waiso\framework\view\InputArray.java
C:\dev\workspaces\framework\src\br\com\waiso\framework\exceptions\ErroImportacao.java
C:\dev\workspaces\framework\src\br\com\waiso\framework\i18n\LocaleUtils.java
C:\dev\workspaces\framework\src\br\com\waiso\framework\io\ProgressFileGeneration.java
C:\dev\workspaces\framework\src\br\com\waiso\framework\view\InputHolder.java
C:\dev\workspaces\framework\src\br\com\waiso\framework\exceptions\ErroConexao.java
C:\dev\workspaces\framework\src\br\com\waiso\framework\utilitario\CollectionUtils.java
C:\dev\workspaces\framework\src\br\com\waiso\framework\exceptions\ErroCriticoUsuario.java
C:\dev\workspaces\framework\src\br\com\waiso\framework\zip\Zipper.java
C:\dev\workspaces\framework\src\br\com\waiso\framework\exceptions\ErroAoEnviarRequisicaoWS.java
C:\dev\workspaces\framework\src\br\com\waiso\framework\utilitario\ISO8061Enum.java
C:\dev\workspaces\framework\src\br\com\waiso\framework\utils\Constantes.java
C:\dev\workspaces\framework\src\br\com\waiso\framework\utils\UtilsData.java
C:\dev\workspaces\framework\src\br\com\waiso\framework\io\IOUtils.java
C:\dev\workspaces\framework\src\br\com\waiso\framework\view\ComplexValidation.java
C:\dev\workspaces\framework\src\br\com\waiso\framework\exceptions\ErroLinkUsuario.java
C:\dev\workspaces\framework\src\br\com\waiso\framework\exceptions\ErroAssinaturaInvalida.java
C:\dev\workspaces\framework\src\br\com\waiso\framework\i18n\GerenciadorMensagem.java
C:\dev\workspaces\framework\src\br\com\waiso\framework\exceptions\ErroRespostaWS.java
C:\dev\workspaces\framework\src\br\com\waiso\framework\ftp\FileTransferTicketsStatus.java
C:\dev\workspaces\framework\src\br\com\waiso\framework\json\JSONConstant.java
C:\dev\workspaces\framework\src\br\com\waiso\framework\view\ScreenCollabUtil.java
C:\dev\workspaces\framework\src\br\com\waiso\framework\utils\UtilsNumero.java
C:\dev\workspaces\framework\src\br\com\waiso\framework\configuracao\GerenciadorConfiguracao.java
C:\dev\workspaces\framework\src\br\com\waiso\framework\exceptions\ErroObjectoNaoEncontrado.java
C:\dev\workspaces\framework\src\br\com\waiso\framework\zip\CreateZipFile.java
C:\dev\workspaces\framework\src\br\com\waiso\framework\exceptions\ErroConversor.java
C:\dev\workspaces\framework\src\br\com\waiso\framework\view\ConverterView.java
C:\dev\workspaces\framework\src\br\com\waiso\framework\utilitario\BooleanConverter.java
C:\dev\workspaces\framework\src\br\com\waiso\framework\view\MonitorStatus.java
C:\dev\workspaces\framework\src\br\com\waiso\framework\utilitario\DateUtils.java
C:\dev\workspaces\framework\src\br\com\waiso\framework\view\ManagerUpload.java
C:\dev\workspaces\framework\src\br\com\waiso\framework\view\IMonitorStatus.java
C:\dev\workspaces\framework\src\br\com\waiso\framework\exceptions\ErroUsuario.java
C:\dev\workspaces\framework\src\br\com\waiso\framework\exceptions\ErroTarefa.java
C:\dev\workspaces\framework\src\br\com\waiso\framework\GerenciadorDeInstanciasDeClasse.java
C:\dev\workspaces\framework\src\br\com\waiso\framework\utilitario\IdentifyingValidation.java
C:\dev\workspaces\framework\src\br\com\waiso\framework\log\GerenciadorLog.java
C:\dev\workspaces\framework\src\br\com\waiso\framework\view\ClearCacheManager.java
C:\dev\workspaces\framework\src\br\com\waiso\framework\view\Servlet.java
C:\dev\workspaces\framework\src\br\com\waiso\framework\email\GerenciadorEmail.java
C:\dev\workspaces\framework\src\br\com\waiso\framework\utilitario\FormatCurrency.java
C:\dev\workspaces\framework\src\br\com\waiso\framework\utilitario\IntegerUtils.java
C:\dev\workspaces\framework\src\br\com\waiso\framework\utilitario\StringUtils.java
C:\dev\workspaces\framework\src\br\com\waiso\framework\view\Input.java
C:\dev\workspaces\framework\src\br\com\waiso\framework\view\DependenceValidation.java
C:\dev\workspaces\framework\src\br\com\waiso\framework\abstratas\Classe.java
C:\dev\workspaces\framework\src\br\com\waiso\framework\json\Consequence.java
C:\dev\workspaces\framework\src\br\com\waiso\framework\view\Combo.java
C:\dev\workspaces\framework\src\br\com\waiso\framework\view\GerenciadorZipView.java
C:\dev\workspaces\framework\src\br\com\waiso\framework\utilitario\StringConverter.java
C:\dev\workspaces\framework\src\br\com\waiso\framework\ftp\ImportadorConteudo.java
C:\dev\workspaces\framework\src\br\com\waiso\framework\utilitario\LongUtils.java
C:\dev\workspaces\framework\src\br\com\waiso\framework\view\IClearCacheManageable.java
C:\dev\workspaces\framework\src\br\com\waiso\framework\view\RegexValidation.java
C:\dev\workspaces\framework\src\br\com\waiso\framework\view\servlets\AttachmentServlet.java
C:\dev\workspaces\framework\src\br\com\waiso\framework\io\SerializableInputStream.java
C:\dev\workspaces\framework\src\br\com\waiso\framework\json\JSONFileAttachment.java
C:\dev\workspaces\framework\src\br\com\waiso\framework\view\ServletContextHolder.java
C:\dev\workspaces\framework\src\br\com\waiso\framework\utilitario\DigitoVerificador.java
C:\dev\workspaces\framework\src\br\com\waiso\framework\utilitario\SessionUtils.java
C:\dev\workspaces\framework\src\br\com\waiso\framework\view\servlets\AbstractServlet.java
C:\dev\workspaces\framework\src\br\com\waiso\framework\view\FutureRemoveSession.java
